<svg width="30" height="30" viewBox="0 0 30 30" fill="none" xmlns="http://www.w3.org/2000/svg">
<path d="M10.9708 18.6589H9.21158C8.66363 18.6589 8.21777 18.2133 8.21777 17.6651V16.6846C8.21777 16.6267 8.1768 16.5765 8.11615 16.5598C7.50618 16.3937 6.91795 16.1492 6.36795 15.8336C6.31805 15.805 6.25923 15.8107 6.22192 15.848L5.52154 16.5484C5.33386 16.7361 5.08438 16.8393 4.81888 16.8393C4.5536 16.8393 4.30389 16.7361 4.11621 16.5484L2.87224 15.3044C2.68455 15.1167 2.5811 14.867 2.5811 14.6017C2.5811 14.3362 2.68455 14.0865 2.87224 13.8991L3.57239 13.1987C3.60992 13.1614 3.61565 13.1026 3.58681 13.0527C3.27141 12.5027 3.02696 11.9144 2.86079 11.3045C2.84409 11.2438 2.79396 11.2029 2.73605 11.2029H1.75552C1.20758 11.2029 0.761719 10.757 0.761719 10.209V8.44986C0.761719 7.90192 1.20758 7.45605 1.75552 7.45605H2.73605C2.79396 7.45605 2.84409 7.41531 2.86079 7.35443C3.02696 6.74469 3.27141 6.15646 3.58704 5.60623C3.61565 5.55634 3.60992 5.49751 3.57262 5.46021L2.87224 4.75983C2.68455 4.57237 2.5811 4.32266 2.5811 4.05716C2.5811 3.79189 2.68455 3.54218 2.87224 3.35449L4.11621 2.11052C4.30389 1.92284 4.55338 1.81961 4.81888 1.81961C5.08438 1.81961 5.33409 1.92284 5.52177 2.11075L6.22192 2.8109C6.25923 2.84821 6.31782 2.85393 6.36795 2.82532C6.91795 2.50969 7.50595 2.26547 8.11592 2.09908C8.17703 2.08237 8.21777 2.03224 8.21777 1.97433V0.993805C8.21777 0.445862 8.66363 0 9.21158 0H10.9708C11.5187 0 11.9646 0.445862 11.9646 0.993805V1.97433C11.9646 2.03224 12.0053 2.08237 12.0662 2.09885C12.6759 2.26524 13.2642 2.50969 13.8142 2.82532C13.8643 2.85393 13.9229 2.84821 13.9604 2.8109L14.6606 2.11052C15.049 1.72234 15.6777 1.72211 16.0661 2.11075L16.1977 2.24236C16.6086 2.65297 15.9876 3.27507 15.5763 2.86377C15.4953 2.79373 15.3914 2.62276 15.2822 2.73216L14.5818 3.43231C14.2651 3.74908 13.7695 3.81294 13.3768 3.58749C12.8915 3.30917 12.3727 3.09357 11.835 2.94685C11.3937 2.82669 11.0854 2.42661 11.0854 1.97411V0.993805C11.0854 0.930405 11.0339 0.878906 10.9705 0.878906H9.21135C9.14818 0.878906 9.09668 0.930405 9.09668 0.993805V1.97433C9.09668 2.42683 8.78837 2.82669 8.34709 2.94708C7.80922 3.0938 7.29034 3.30917 6.80511 3.58749C6.41258 3.81294 5.91705 3.74908 5.60028 3.43231L4.90013 2.73216C4.87221 2.70424 4.84062 2.69852 4.81888 2.69852C4.79713 2.69852 4.76555 2.70424 4.73785 2.73216L3.49365 3.97614C3.46596 4.00383 3.46001 4.03564 3.46001 4.05716C3.46001 4.0789 3.46596 4.11072 3.49365 4.13841L4.19403 4.83879C4.5108 5.15556 4.57466 5.65086 4.34921 6.04362C4.07089 6.52908 3.85529 7.04773 3.70857 7.5856C3.58841 8.02689 3.18832 8.33496 2.73605 8.33496H1.75552C1.69212 8.33496 1.64062 8.38669 1.64062 8.44986V10.209C1.64062 10.2724 1.69212 10.3239 1.75552 10.3239H2.73605C3.18832 10.3239 3.58841 10.632 3.7088 11.0733C3.85529 11.6114 4.07089 12.1301 4.34921 12.6153C4.57466 13.008 4.5108 13.5033 4.19403 13.8201L3.49388 14.5205C3.46596 14.5482 3.46024 14.58 3.46024 14.6017C3.46024 14.6233 3.46619 14.6551 3.49388 14.683L4.73785 15.9267C4.78271 15.9716 4.8555 15.9718 4.90036 15.9267L5.60051 15.2266C5.91728 14.9098 6.41281 14.846 6.80557 15.0714C7.2908 15.3497 7.80945 15.5653 8.34732 15.7121C8.7886 15.8322 9.09691 16.2323 9.09691 16.6848V17.6651C9.09691 17.7285 9.14841 17.78 9.21158 17.78H10.9708C11.0342 17.78 11.0857 17.7285 11.0857 17.6651V16.6848C11.0857 16.2323 11.394 15.8322 11.8352 15.7121C12.3967 15.5592 12.627 16.4072 12.0664 16.5598C12.0055 16.5765 11.9646 16.6267 11.9646 16.6848V17.6651C11.9646 18.213 11.5187 18.6589 10.9708 18.6589Z" fill="#917452"/>
<path d="M5.94946 9.32945C5.94946 6.42356 8.87137 4.4316 11.5639 5.45745C12.1066 5.66459 11.7947 6.48605 11.2508 6.27891C9.12589 5.4689 6.82814 7.04635 6.82814 9.32945C6.82814 11.1866 8.39232 12.6977 10.2861 12.5867C10.8652 12.5516 10.9194 13.4299 10.3378 13.4642C7.94989 13.6047 5.94946 11.7004 5.94946 9.32945Z" fill="#917452"/>
<path d="M25.0805 19.5147L20.6278 18.6488V17.5486C21.8782 16.6955 22.5552 15.4875 22.7026 14.1307C23.3517 14.0792 23.864 13.5347 23.864 12.8728V11.9696C24.9221 11.5095 24.7793 9.96528 23.6598 9.70481V9.35622C23.6598 6.22215 21.119 3.68133 17.9851 3.68133H17.5093C14.3752 3.68133 11.8346 6.22215 11.8346 9.356V9.70481C10.7156 9.96505 10.5719 11.5095 11.6304 11.9696V12.8728C11.6304 13.5347 12.1427 14.0792 12.7918 14.1307C12.9204 15.3145 13.4752 16.398 14.3505 17.1515C14.518 17.2959 14.6901 17.4282 14.8666 17.5486V18.6488L10.4139 19.5147C8.0647 19.9715 6.23364 21.2958 6.23364 23.7394V28.2092C6.23364 29.1982 7.03542 30 8.02441 30H27.47C28.459 30 29.2608 29.1982 29.2608 28.2092V23.7394C29.2608 21.3039 27.4409 19.9736 25.0805 19.5147ZM21.4227 19.6987C21.1036 20.1627 20.6159 20.8708 20.089 21.6334C19.8743 21.9445 19.4891 21.9841 19.3385 21.8939L18.6443 21.4776C19.3213 21.0777 20.2581 20.3911 20.5424 19.5275L21.4227 19.6987ZM17.7471 20.9651C17.0797 20.6291 15.7492 19.799 15.7455 19.0144C15.7455 19.0132 15.7455 19.0121 15.7455 19.0109V18.0338C17.0245 18.5854 18.4683 18.5861 19.7489 18.0338V19.0109C19.7489 19.7969 18.4152 20.6289 17.7471 20.9651ZM12.7135 9.356C12.7135 7.55332 13.7133 5.97976 15.1875 5.16082V5.71174C15.1875 6.29264 16.0664 6.29356 16.0664 5.71174V4.78202C16.4608 4.65728 16.8769 4.58244 17.3076 4.56458V6.73759C17.3076 7.31849 18.1865 7.3194 18.1865 6.73759V4.56458C18.6173 4.58244 19.0336 4.65728 19.428 4.78202V5.71174C19.428 6.29264 20.3069 6.29356 20.3069 5.71174V5.16082C21.7811 5.97976 22.7809 7.55332 22.7809 9.356V9.67368H12.7135V9.356ZM12.1061 10.5526H23.3883C23.8095 10.5526 23.809 11.1891 23.3883 11.1891H12.1061C11.6847 11.1891 11.6852 10.5526 12.1061 10.5526ZM13.6428 13.6858C13.6377 13.4468 13.4425 13.2557 13.2033 13.2557C13.1301 13.2376 12.5091 13.3699 12.5091 12.8728V12.0682H22.985V12.8728C22.985 13.369 22.3476 13.2417 22.2908 13.2557C22.0519 13.2557 21.8567 13.4468 21.8514 13.6858C21.8278 14.7844 21.3609 15.8047 20.5706 16.4854C18.8922 17.9306 16.6022 17.9308 14.9238 16.4854C14.1333 15.8047 13.6664 14.7844 13.6428 13.6858ZM14.9518 19.5275C15.2363 20.3911 16.1728 21.0777 16.8501 21.4776C16.1543 21.8502 16.2035 21.9617 15.8874 21.9244C15.6908 21.9008 15.5143 21.7914 15.4017 21.6284C14.8762 20.8676 14.3901 20.1615 14.0715 19.6987L14.9518 19.5275ZM9.88133 29.1211H8.02419C7.52065 29.1211 7.11232 28.7128 7.11232 28.2092V23.7394C7.11232 22.4224 7.71062 21.5119 9.02303 20.8829C9.07613 21.1169 9.88133 23.3025 9.88133 26.3564V29.1211ZM17.3076 29.1211H10.7602V26.3564C10.7602 23.0475 9.92482 20.9168 9.84265 20.5561C10.3558 20.3856 9.97472 20.517 13.1308 19.8816C14.0378 21.1997 15.7306 23.659 16.7286 25.0774C17.1076 25.616 17.3076 26.2486 17.3076 26.9071V29.1211ZM17.7471 25.0692C17.6597 24.8978 17.5596 24.7316 17.4475 24.5718C17.1101 24.0926 16.6723 23.4636 16.2154 22.8042C16.3511 22.7742 16.4837 22.722 16.6079 22.6476L17.7471 21.9644L18.8865 22.6476C19.0105 22.722 19.1433 22.7742 19.279 22.8042C18.8221 23.4631 18.3843 24.0921 18.0469 24.5718C17.9345 24.7316 17.8345 24.8978 17.7471 25.0692ZM28.3819 28.2092C28.3819 28.7128 27.9738 29.1211 27.47 29.1211H25.6128V27.4631C25.6128 26.8822 24.7339 26.8812 24.7339 27.4631V29.1211H18.1865V26.9071C18.1865 26.2486 18.3868 25.616 18.7656 25.0777C19.3332 24.2709 21.6703 20.8983 22.3636 19.8816C25.5181 20.5167 25.1377 20.3854 25.6515 20.5561C25.5877 20.8264 24.8481 22.8362 24.7461 25.6872C24.725 26.2694 25.6035 26.2981 25.6243 25.7188C25.7232 22.9598 26.4 21.1846 26.4711 20.8829C27.7836 21.5119 28.3819 22.4224 28.3819 23.7392V28.2092Z" fill="#917452"/>
</svg>
